{
  "extends": [
    "tslint:latest"
  ],
  "rules": {
    "quotemark": [true, "single"],
    "no-submodule-imports": false,
    "object-literal-sort-keys": false,
    "ordered-imports": false,
    "member-access": false,
    "interface-name": [true, "never-prefix"],
    "no-implicit-dependencies": false,
    "no-console": false
  }
}
